,Id,Tweets,Nationalite
0,1064545875580592128,@airfrance How can I know what necessities to buy when I don’t know when it will be delivered. My suitcase was loca… https://t.co/1IaHMt0D0a,Montreal
1,1064545756877651970,RT @ChangeTheRef: Thanks to @FedEx and @airfrance Guac #3DACTIVIST (a 3D printed real size sculpture of Joaquin Oliver) made it to Cape Tow…,
2,1064544890527330304,RT @airlinetrends: Air France ‘value’ airline Joon launches  ‘Cosy Joon’ Economy Couch on its A340. 4 rows of Geven Piuma Sofa seats aimed…,Troll Airfield 
3,1064544097560604672,RT @ChangeTheRef: Thanks to @FedEx and @airfrance Guac #3DACTIVIST (a 3D printed real size sculpture of Joaquin Oliver) made it to Cape Tow…,Kentucky 
4,1064543586413367297,@Airfrance How do I know how many miles I have please ? AF1824036335,
5,1064542670150873089,@airfrance Because no one had the courtesy to answer my messages or inquiries. So basically I could wait 5 days unt… https://t.co/VorvbdjyaS,Montreal
6,1064542169279721472,@airfrance So I have to buy necessities and clothes due to the inconvenience cause by you #airfrance but there is n… https://t.co/sIthS4z2MU,Montreal
7,1064541399436144645,RT @airlinetrends: Air France ‘value’ airline Joon launches  ‘Cosy Joon’ Economy Couch on its A340. 4 rows of Geven Piuma Sofa seats aimed…,Bogotá  D.C.  Colombia
8,1064539863964364800,@TatyanaHakim 3/3 Rest assured that your request will be reviewed individually and carefully by our colleagues of Customer Care.,
9,1064539782615887872,@TatyanaHakim 2/3 This can be done up to 21 days after your baggage has been delivered. Please make sure to include… https://t.co/NdMpo2U4PT,
10,1064539621256830977,@TatyanaHakim 1/3 Hello Tanya  If necessary  you may purchase items for first needs (such as toiletries  clothing … https://t.co/ocAFvTBk8I,
11,1064539480332349442,RT @ChangeTheRef: Thanks to @FedEx and @airfrance Guac #3DACTIVIST (a 3D printed real size sculpture of Joaquin Oliver) made it to Cape Tow…,Caracas
12,1064538980279037952,@AlSaibie We value your feedback on this matter  Ali. Regrettably  we are unable to interfere with Refunds process.… https://t.co/GtjN0i2lqz,Amsterdam  the Netherlands
13,1064537907439038464,RT @alead: Just to clarify: with @British_Airways you pay for food and refreshments while with the others (@lufthansa @Alitalia @airfrance…,Italia
14,1064537079030272000,@alead @British_Airways @lufthansa @Alitalia @airfrance @KLM True  in Europe. In US  you pay the air you are breathing to airlines 😊,Redmond  WA
